{
   "packageDirectories": [
      {
         "path": "force-app",
         "default": true,
         "package": "AdventOfCode",
         "versionName": "Version 1.0",
         "versionNumber": "1.0.0.NEXT"
      }
   ],
   "namespace": "",
   "sfdcLoginUrl": "https://login.salesforce.com",
   "sourceApiVersion": "50.0"
}
